exercise-05
…
  filter(startYear <= 1979) |>
  filter(runtimeMinutes >= 60) |>
  filter(runtimeMinutes <= 180) |>
  mutate(decade = case_when(
    startYear >= 1920 & startYear <=1929 ~ "20s",
    startYear >= 1930 & startYear <=1939 ~ "30s",
    startYear >= 1940 & startYear <=1949 ~ "40s",
    startYear >= 1950 & startYear <=1959 ~ "50s",
    startYear >= 1960 & startYear <=1969 ~ "60s",
    startYear >= 1970 & startYear <=1979 ~ "70s",
    .default = NULL
  ))
d

# A tibble: 5,651 × 11
   tconst   titleType primaryTitle startYear runtimeMinutes genres averageRating
   <chr>    <chr>     <chr>            <dbl>          <dbl> <chr>          <dbl>
 1 tt00103… movie     The Cabinet…      1920             76 Fanta…           8.1
 2 tt00110… movie     Leaves From…      1920            167 Drama            6.7
 3 tt00111… movie     Dr. Jekyll …      1920             82 Drama…           7  
 4 tt00112… movie     The Golem         1920             76 Fanta…           7.2
 5 tt00113… movie     The Last of…      1920             73 Actio…           6.7
 6 tt00114… movie     The Mark of…      1920            107 Adven…           7.1
 7 tt00115… movie     The Penalty       1920             90 Crime…           7.4
 8 tt00116… movie     The Saphead       1920             77 Comedy           6.2
 9 tt00118… movie     Way Down Ea…      1920            145 Drama…           7.4
10 tt00118… movie     Why Change …      1920             90 Comed…           6.7
# ℹ 5,641 more rows
# ℹ 4 more variables: numVotes <dbl>, nconst <chr>, director <chr>,
#   decade <chr>
…
g <- "https://raw.githubusercontent.com/difiore/ada-datasets/main/zombies.csv"
z <- read_csv(g)

Rows: 1000 Columns: 10
── Column specification ────────────────────────────────────────────────────────
Delimiter: ","
chr (4): first_name, last_name, gender, major
dbl (6): id, height, weight, zombies_killed, years_of_education, age

ℹ Use `spec()` to retrieve the full column specification for this data.
ℹ Specify the column types or set `show_col_types = FALSE` to quiet this message.

z

# A tibble: 1,000 × 10
      id first_name last_name gender height weight zombies_killed
   <dbl> <chr>      <chr>     <chr>   <dbl>  <dbl>          <dbl>
 1     1 Sarah      Little    Female   62.9   132.              2
 2     2 Mark       Duncan    Male     67.8   146.              5
 3     3 Brandon    Perez     Male     72.1   153.              1
 4     4 Roger      Coleman   Male     66.8   130.              5
 5     5 Tammy      Powell    Female   64.7   132.              4
 6     6 Anthony    Green     Male     71.2   153.              1
 7     7 Theresa    Hamilton  Female   70.3   160.              0
 8     8 Phyllis    Jenkins   Female   59.8   109.              4
 9     9 Steven     Long      Male     68.6   153.              9
10    10 Russell    Chavez    Male     72.8   169.              2
# ℹ 990 more rows
# ℹ 3 more variables: years_of_education <dbl>, major <chr>, age <dbl>
…
